<?xml version="1.0" encoding="utf-8"?>
<!-- Generator: Adobe Illustrator 21.0.0, SVG Export Plug-In . SVG Version: 6.00 Build 0)  -->
<svg version="1.1" id="Layer_1" xmlns="http://www.w3.org/2000/svg" xmlns:xlink="http://www.w3.org/1999/xlink" x="0px" y="0px"
	 viewBox="0 0 504.3 504.3" style="enable-background:new 0 0 504.3 504.3;" xml:space="preserve">
<style type="text/css">
	.st0{fill:#2B8272;}
	.st1{fill:#4B9587;}
	.st2{fill:#359685;}
	.st3{fill:#53A697;}
	.st4{fill:#3DB39E;}
	.st5{fill:#81CEC0;}
	.st6{fill:none;}
	.st7{fill:#648C0D;}
	.st8{font-family:'Arial-Black';}
	.st9{font-size:338px;}
</style>
<path class="st0" d="M65.4,344.8l52.6-137c1.6-4.1,6.3-5.7,10.3-4.1l272.9,110.6c4.3,1.8,6.4,6.5,5,10.3l-52.8,137.2
	c-1.6,4.1-6.3,5.7-10.3,4.1L70.4,355.1C66.1,353.3,63.9,348.8,65.4,344.8z"/>
<path class="st1" d="M196.4,249.7L131.5,223c-2-0.9-4.5,0.1-5.3,2L81.8,340.9c-0.8,1.8,0.5,4.4,2.4,5.3l64.9,26.7
	c2,0.9,4.5-0.1,5.3-2c0.8-1.8-0.5-4.4-2.4-5.3l-61.1-25.2l41.5-108.7l61.1,25.2c2,0.9,4.5-0.1,5.3-2
	C199.4,252.9,198.3,250.6,196.4,249.7z"/>
<path class="st2" d="M45.1,287.9l66.7-130.5c2.1-3.7,6.6-5.2,10.8-3.1l277.7,139.2c4,2.3,5.8,6.8,3.7,10.5l-66.7,130.5
	c-2.1,3.7-6.6,5.2-10.8,3.1L48.8,298.4C45.1,296.3,43.2,291.4,45.1,287.9z"/>
<path class="st3" d="M123.8,173.6c-2-0.9-4.4-0.5-5.4,1.6L62,285.4c-0.8,1.8-0.2,4.3,2,5.4l62.3,32.8c2,0.9,4.4,0.5,5.4-1.6
	c0.8-1.8,0.2-4.3-2-5.4l-58.4-30.9l53-103.3l58.4,30.9c2,0.9,4.4,0.5,5.4-1.6c0.8-1.8,0.2-4.3-2-5.4
	C186.2,206.4,123.8,173.6,123.8,173.6z"/>
<path class="st4" d="M40.1,224.8L121.3,100c2.3-3.6,7.4-4.7,11.5-2L401,272.6c3.8,2.5,5.3,7.5,2.9,11.3l-81.2,124.8
	c-2.3,3.6-7.4,4.7-11.5,2L43,236.1C38.9,233.4,37.7,228.6,40.1,224.8z"/>
<path class="st5" d="M190.9,301.9c28.5,18.5,65.3,12,82.3-14.1s7.8-62.6-20.4-81s-65.3-12-82.3,14.1S162.6,283.5,190.9,301.9z
	 M204,279l2.3-3.6c-6-4.9-8.7-11.4-8.4-16.3c0.1-0.6,0.3-1.5,0.6-2c1.2-1.9,3.7-2.3,5.5-1.2c1.5,1,1.8,2.2,1.9,3.3
	c1.1,4.5,3.1,8.8,7.7,11.8c5.9,3.8,10,3.8,12.4,0c6-9.3-20.6-20.5-10.7-35.7c3.7-5.7,10.4-8.1,19.5-3.6l2.3-3.6
	c1.1-1.7,3.3-2.3,5.1-1.1s2.2,3.4,1.1,5.1l-2.3,3.6c4.7,4.1,7.8,8.8,8.1,13.4c0.2,0.8,0,1.7-0.6,2.6c-1.2,1.9-3.7,2.3-5.8,1
	c-1-0.7-1.5-1.6-1.9-3.3c-0.8-3.2-3.2-6.8-7.1-9.3c-5.4-3.5-9-2.5-10.7,0.1c-5.4,8.3,20.9,20.1,10.7,35.7c-4.5,6.9-12,8.4-21.4,3.7
	l-2.3,3.6c-1.1,1.7-3.3,2.3-5.1,1.1C203.3,282.9,202.9,280.6,204,279z M333.6,251c-1.2,1.9-0.5,4.7,1.5,6.1l39.8,25.9l-65,99.8
	l-39.7-25.9c-2.1-1.3-4.9-0.8-6.2,1.1s-0.5,4.7,1.5,6.1l43.6,28.4c2.1,1.3,4.9,0.8,6.2-1.1l69.6-107c1.2-1.9,0.5-4.7-1.5-6.1
	l-43.6-28.4C337.7,248.6,334.9,249.1,333.6,251z M128.3,117.4l-69.6,107c-1.2,1.9-0.5,4.7,1.5,6.1l43.6,28.4
	c2.1,1.3,4.9,0.8,6.2-1.1c1.3-1.9,0.5-4.7-1.5-6.1l-39.8-25.9l65-99.8l39.8,25.9c2.1,1.3,4.9,0.8,6.2-1.1c1.2-1.9,0.5-4.7-1.5-6.1
	l-43.6-28.4C132.4,115,129.5,115.4,128.3,117.4z M304.4,318.3c4.4,2.8,9.7,1.9,12.3-2.1c2.6-4,1.3-9.3-3.1-12.1s-9.7-1.9-12.3,2.1
	S300.3,315.6,304.4,318.3z M139.2,190.4c-4.4-2.8-9.7-1.9-12.3,2.1c-2.6,4-1.3,9.3,3.1,12.1c4.4,2.8,9.7,1.9,12.3-2.1
	S143.6,193.3,139.2,190.4z"/>
<rect x="240.8" y="-6" class="st6" width="434" height="310"/>
<text transform="matrix(1 0 0 1 240.7642 236.0017)" class="st7 st8 st9">+</text>
</svg>
