<?xml version="1.0" encoding="utf-8"?>
<!-- Generator: Adobe Illustrator 21.0.0, SVG Export Plug-In . SVG Version: 6.00 Build 0)  -->
<svg version="1.1" id="Слой_1" xmlns="http://www.w3.org/2000/svg" xmlns:xlink="http://www.w3.org/1999/xlink" x="0px" y="0px"
	 viewBox="0 0 512 512" style="enable-background:new 0 0 512 512;" xml:space="preserve">
<path d="M443.9,123.9C443.9,123.9,443.8,123.9,443.9,123.9l-106.1,0v-11.5c0-19-15.7-34.4-35.1-34.4h-93.5
	c-19.3,0-35.1,15.4-35.1,34.4v11.5h-106c-6.5,0-11.7,5.2-11.7,11.5v252.3c0,19,15.7,34.4,35.1,34.4h328.9
	c19.3,0,35.1-15.4,35.1-34.4v-252c0,0,0,0,0,0C455.1,128,450.3,123.9,443.9,123.9z M197.6,112.4c0-6.3,5.2-11.5,11.7-11.5h93.5
	c6.4,0,11.7,5.1,11.7,11.5v11.5H197.6V112.4z M427.6,146.8l-36.3,106.8c-1.6,4.7-6,7.8-11.1,7.8h-65.8V250c0-6.3-5.2-11.5-11.7-11.5
	h-93.5c-6.5,0-11.7,5.1-11.7,11.5v11.5h-65.8c-5,0-9.5-3.2-11.1-7.8L84.4,146.8H427.6z M291.1,261.5v22.9h-70.1v-22.9H291.1z
	 M432.1,387.6c0,6.3-5.2,11.5-11.7,11.5H91.6c-6.4,0-11.7-5.1-11.7-11.5V206l18.7,54.9c4.8,14.1,18.1,23.5,33.3,23.5h65.8v11.5
	c0,6.3,5.2,11.5,11.7,11.5h93.5c6.5,0,11.7-5.1,11.7-11.5v-11.5h65.8c15.1,0,28.5-9.5,33.3-23.5l18.7-54.9V387.6z"/>
</svg>
