<?xml version="1.0" encoding="utf-8"?>
<!-- Generator: Adobe Illustrator 21.0.0, SVG Export Plug-In . SVG Version: 6.00 Build 0)  -->
<svg version="1.1" id="Слой_1" xmlns="http://www.w3.org/2000/svg" xmlns:xlink="http://www.w3.org/1999/xlink" x="0px" y="0px"
	 viewBox="0 0 512 512" style="enable-background:new 0 0 512 512;" xml:space="preserve">
<style type="text/css">
	.st0{fill:#4F4F4F;}
	.st1{fill:#696969;}
	.st2{fill:#B3B3B3;}
	.st3{fill:#CCCCCC;}
	.st4{fill:#353535;}
	.st5{fill:#1990C2;}
	.st6{fill:#2DADE3;}
	.st7{fill:#FFA754;}
	.st8{fill:#FFCB63;}
	.st9{fill:#FFB4A9;}
	.st10{fill:#FFD9D4;}
	.st11{fill:#85453D;}
	.st12{fill:#A45E43;}
</style>
<path class="st0" d="M411.1,385.9l-47.5-24.6l29,64l21.8-14.8L411.1,385.9z"/>
<path class="st1" d="M387.4,385.9l-24.2-24.6l-24.4,24.6l9.1,69.6l44.6-30.3L387.4,385.9z"/>
<path class="st2" d="M390.6,230.2l-59.4-12.3l56.2,168l23.8,0L390.6,230.2z"/>
<path class="st3" d="M366.9,230.2l-35.7-12.3l-13,12.3l20.6,155.7l48.5,0L366.9,230.2z"/>
<path class="st0" d="M449.5,152c-4.6-4.8-12.2-4.8-16.8,0l-51.9,53.6H342c-13.1,0-23.8,11.1-23.8,24.6h72.4l58.8-60.8
	C454.1,164.6,454.1,156.8,449.5,152z"/>
<path class="st2" d="M342,410.5l15.9,32.8h-35.3l-20.2-16.4l15.9-16.4H342z"/>
<path class="st4" d="M429.2,410.5l-15.9,45.1h23.8c8.8,0,15.9-7.3,15.9-16.4v-28.7H429.2z"/>
<path class="st0" d="M342,410.5l5.9,45.1h65.4c8.8,0,15.9-7.3,15.9-16.4v-28.7H342z"/>
<path class="st3" d="M74.9,410.5c-8.8,0-15.9,7.3-15.9,16.4s7.1,16.4,15.9,16.4h247.7l-4.3-32.8H74.9z"/>
<path class="st5" d="M200.5,220.4v61.5c19.7,0,35.7-16.5,35.7-36.9L200.5,220.4z"/>
<path class="st6" d="M212.4,245l-11.9-24.6L164.8,245c0,20.4,16,36.9,35.7,36.9C207.1,281.9,212.4,265.3,212.4,245z"/>
<path class="st7" d="M220.3,146.7h-23.8l15.9,98.3h23.8V163C236.2,154,229.1,146.7,220.3,146.7z"/>
<path class="st8" d="M196.6,146.7h-15.9c-8.8,0-15.9,7.3-15.9,16.4V245h47.6V163C212.4,154,205.3,146.7,196.6,146.7z"/>
<path class="st9" d="M200.5,48.3v82.8l35.7-37.7v-8.2C236.2,64.8,220.2,48.3,200.5,48.3z"/>
<path class="st10" d="M200.5,48.3c-19.7,0-35.7,16.5-35.7,36.9v8.2l47.6,37.7V85.2C212.4,64.8,207.1,48.3,200.5,48.3z"/>
<path class="st11" d="M215.3,93.4c-0.8-1.3-1.8-2.5-2.9-3.5l-11.9,56.7c19.7,0,35.7-16.5,35.7-36.9V93.4H215.3z"/>
<path class="st12" d="M212.4,109.8V89.9c-3.2-2.9-7.3-4.7-11.9-4.7c-6.2,0-11.6,3.3-14.8,8.2h-20.8v16.4c0,20.4,16,36.9,35.7,36.9
	C207.1,146.7,212.4,130.2,212.4,109.8z"/>
<path d="M453,404.3h-33.4l-22.7-171.9l56.8-58.7c3.4-3.5,5.2-8.1,5.2-13c0-4.9-1.9-9.6-5.2-13c-3.4-3.5-7.8-5.4-12.6-5.4
	s-9.2,1.9-12.6,5.4l-50.1,51.8H342c-16.4,0-29.7,13.8-29.7,30.7c0,0.3,0,0.5,0,0.8c0,0,0,0,0,0.1l22.9,173.3H230.2V275
	c7.3-7.8,11.9-18.4,11.9-30.1v-18.4h29.7c3.3,0,5.9,2.8,5.9,6.1c0,3.4,2.7,6.1,5.9,6.1s5.9-2.8,5.9-6.1c0-10.2-8-18.4-17.8-18.4
	h-29.7V163c0-9.6-5.9-17.8-14.1-21.1c8.6-7.9,14.1-19.4,14.1-32.2V85.2c0-23.7-18.7-43-41.6-43s-41.6,19.3-41.6,43v24.6
	c0,12.8,5.4,24.3,14.1,32.2c-6.3,2.5-11.2,7.9-13.2,14.7c-33.7-2.7-60.3-31.9-60.3-67.4c0-3.4-2.7-6.1-5.9-6.1s-5.9,2.8-5.9,6.1
	c0,42,31.5,76.5,71.3,79.7v76c0,11.7,4.5,22.3,11.9,30.1v50.3c0,4.1-3.4,9-7.2,10.3l-52.1,17.9c-2.4,0.8-4.1,3.2-4.1,5.8v25.9
	c0,3.4,2.7,6.1,5.9,6.1c3.3,0,5.9-2.8,5.9-6.1v-21.5l48-16.5c8.6-3,15.3-12.6,15.3-22v-41.5c5.4,2.7,11.5,4.2,17.8,4.2
	c6.4,0,12.4-1.5,17.8-4.2v120.5H74.9c-12,0-21.8,10.1-21.8,22.5c0,10.3,6.7,19,15.9,21.7v7c0,3.4,2.7,6.1,5.9,6.1s5.9-2.8,5.9-6.1
	v-6.1h260.3l0.9,7c0.4,3,2.9,5.3,5.9,5.3h89.2c12,0,21.8-10.1,21.8-22.5v-28.7C458.9,407.1,456.3,404.3,453,404.3z M200.5,54.5
	c16.4,0,29.7,13.8,29.7,30.7v2h-12c-4.5-5.2-10.9-8.2-17.7-8.2c-6.8,0-13.2,3-17.7,8.2h-12v-2C170.8,68.3,184.1,54.5,200.5,54.5z
	 M170.8,109.8V99.5h14.9c2,0,3.8-1,4.9-2.7c2.2-3.4,5.9-5.5,9.9-5.5c4,0,7.7,2,9.9,5.5c1.1,1.7,3,2.7,4.9,2.7h14.9v10.2
	c0,16.9-13.3,30.7-29.7,30.7S170.8,126.7,170.8,109.8z M180.7,152.8h39.6c5.5,0,9.9,4.6,9.9,10.2v75.8h-59.4V163
	C170.8,157.4,175.2,152.8,180.7,152.8z M171.4,251.1h58.3c-2.8,14-14.8,24.6-29.1,24.6C186.2,275.7,174.2,265.1,171.4,251.1z
	 M404.4,379.8h-60.4L325,236.4h60.4L404.4,379.8z M342,211.8h38.8c1.6,0,3.1-0.6,4.2-1.8l51.9-53.6c1.1-1.2,2.6-1.8,4.2-1.8
	c1.6,0,3.1,0.6,4.2,1.8c1.1,1.2,1.7,2.7,1.7,4.3c0,1.6-0.6,3.2-1.7,4.3l-57.1,59h-63C327.6,216.9,334.2,211.8,342,211.8z
	 M74.9,437.1c-5.5,0-9.9-4.6-9.9-10.2s4.4-10.2,9.9-10.2h261.9l2.7,20.5H74.9z M347.2,404.3l-1.6-12.3H406l1.6,12.3H347.2z
	 M447,439.2c0,5.6-4.4,10.2-9.9,10.2h-84l-0.9-6.9c0,0,0-0.1,0-0.1l-3.4-25.7h65.5h0.2H447V439.2z"/>
</svg>
